%YAML 1.1
%TAG !u! tag:unity3d.com,2011:
--- !u!114 &11400000
MonoBehaviour:
  m_ObjectHideFlags: 0
  m_CorrespondingSourceObject: {fileID: 0}
  m_PrefabInstance: {fileID: 0}
  m_PrefabAsset: {fileID: 0}
  m_GameObject: {fileID: 0}
  m_Enabled: 1
  m_EditorHideFlags: 0
  m_Script: {fileID: 11500000, guid: 7be3e77581e707e419664b80120e0a07, type: 3}
  m_Name: AlictusCactus
  m_EditorClassIdentifier: 
  Level_ID: 0
  CubeCount: 157
  CollectableDatas:
  - Position: {x: -13, y: 0, z: -8}
  - Position: {x: -12, y: 0, z: -8}
  - Position: {x: -10, y: 0, z: -8}
  - Position: {x: -9, y: 0, z: -8}
  - Position: {x: -8, y: 0, z: -8}
  - Position: {x: -7, y: 0, z: -8}
  - Position: {x: -6, y: 0, z: -8}
  - Position: {x: -5, y: 0, z: -8}
  - Position: {x: -4, y: 0, z: -8}
  - Position: {x: -3, y: 0, z: -8}
  - Position: {x: -2, y: 0, z: -8}
  - Position: {x: -1, y: 0, z: -8}
  - Position: {x: 0, y: 0, z: -8}
  - Position: {x: 1, y: 0, z: -8}
  - Position: {x: 2, y: 0, z: -8}
  - Position: {x: 3, y: 0, z: -8}
  - Position: {x: 4, y: 0, z: -8}
  - Position: {x: 5, y: 0, z: -8}
  - Position: {x: 6, y: 0, z: -8}
  - Position: {x: 7, y: 0, z: -8}
  - Position: {x: -12, y: 0, z: -7}
  - Position: {x: -11, y: 0, z: -7}
  - Position: {x: -10, y: 0, z: -7}
  - Position: {x: 0, y: 0, z: -7}
  - Position: {x: 7, y: 0, z: -7}
  - Position: {x: -11, y: 0, z: -6}
  - Position: {x: -10, y: 0, z: -6}
  - Position: {x: 0, y: 0, z: -6}
  - Position: {x: 7, y: 0, z: -6}
  - Position: {x: 10, y: 0, z: -6}
  - Position: {x: 11, y: 0, z: -6}
  - Position: {x: -10, y: 0, z: -5}
  - Position: {x: 0, y: 0, z: -5}
  - Position: {x: 7, y: 0, z: -5}
  - Position: {x: 8, y: 0, z: -5}
  - Position: {x: 9, y: 0, z: -5}
  - Position: {x: -10, y: 0, z: -4}
  - Position: {x: 0, y: 0, z: -4}
  - Position: {x: 7, y: 0, z: -4}
  - Position: {x: 8, y: 0, z: -4}
  - Position: {x: -12, y: 0, z: -3}
  - Position: {x: -11, y: 0, z: -3}
  - Position: {x: -10, y: 0, z: -3}
  - Position: {x: 0, y: 0, z: -3}
  - Position: {x: 7, y: 0, z: -3}
  - Position: {x: 8, y: 0, z: -3}
  - Position: {x: 9, y: 0, z: -3}
  - Position: {x: 10, y: 0, z: -3}
  - Position: {x: -13, y: 0, z: -2}
  - Position: {x: -12, y: 0, z: -2}
  - Position: {x: -10, y: 0, z: -2}
  - Position: {x: 0, y: 0, z: -2}
  - Position: {x: 7, y: 0, z: -2}
  - Position: {x: 10, y: 0, z: -2}
  - Position: {x: -13, y: 0, z: -1}
  - Position: {x: -11, y: 0, z: -1}
  - Position: {x: -10, y: 0, z: -1}
  - Position: {x: 0, y: 0, z: -1}
  - Position: {x: 7, y: 0, z: -1}
  - Position: {x: -11, y: 0, z: 0}
  - Position: {x: 0, y: 0, z: 0}
  - Position: {x: 7, y: 0, z: 0}
  - Position: {x: 8, y: 0, z: 0}
  - Position: {x: -11, y: 0, z: 1}
  - Position: {x: 0, y: 0, z: 1}
  - Position: {x: 8, y: 0, z: 1}
  - Position: {x: -14, y: 0, z: 2}
  - Position: {x: -13, y: 0, z: 2}
  - Position: {x: -11, y: 0, z: 2}
  - Position: {x: -2, y: 0, z: 2}
  - Position: {x: -1, y: 0, z: 2}
  - Position: {x: 0, y: 0, z: 2}
  - Position: {x: 1, y: 0, z: 2}
  - Position: {x: 2, y: 0, z: 2}
  - Position: {x: 8, y: 0, z: 2}
  - Position: {x: -13, y: 0, z: 3}
  - Position: {x: -12, y: 0, z: 3}
  - Position: {x: -11, y: 0, z: 3}
  - Position: {x: -3, y: 0, z: 3}
  - Position: {x: 3, y: 0, z: 3}
  - Position: {x: 8, y: 0, z: 3}
  - Position: {x: 9, y: 0, z: 3}
  - Position: {x: 10, y: 0, z: 3}
  - Position: {x: -12, y: 0, z: 4}
  - Position: {x: -11, y: 0, z: 4}
  - Position: {x: -3, y: 0, z: 4}
  - Position: {x: 0, y: 0, z: 4}
  - Position: {x: 3, y: 0, z: 4}
  - Position: {x: 8, y: 0, z: 4}
  - Position: {x: 10, y: 0, z: 4}
  - Position: {x: 11, y: 0, z: 4}
  - Position: {x: -11, y: 0, z: 5}
  - Position: {x: -3, y: 0, z: 5}
  - Position: {x: 0, y: 0, z: 5}
  - Position: {x: 3, y: 0, z: 5}
  - Position: {x: 8, y: 0, z: 5}
  - Position: {x: 11, y: 0, z: 5}
  - Position: {x: -11, y: 0, z: 6}
  - Position: {x: -3, y: 0, z: 6}
  - Position: {x: 3, y: 0, z: 6}
  - Position: {x: 8, y: 0, z: 6}
  - Position: {x: -12, y: 0, z: 7}
  - Position: {x: -11, y: 0, z: 7}
  - Position: {x: -2, y: 0, z: 7}
  - Position: {x: -1, y: 0, z: 7}
  - Position: {x: 0, y: 0, z: 7}
  - Position: {x: 1, y: 0, z: 7}
  - Position: {x: 2, y: 0, z: 7}
  - Position: {x: 8, y: 0, z: 7}
  - Position: {x: 9, y: 0, z: 7}
  - Position: {x: 10, y: 0, z: 7}
  - Position: {x: -13, y: 0, z: 8}
  - Position: {x: -12, y: 0, z: 8}
  - Position: {x: -10, y: 0, z: 8}
  - Position: {x: 8, y: 0, z: 8}
  - Position: {x: 10, y: 0, z: 8}
  - Position: {x: 11, y: 0, z: 8}
  - Position: {x: -14, y: 0, z: 9}
  - Position: {x: -13, y: 0, z: 9}
  - Position: {x: -10, y: 0, z: 9}
  - Position: {x: 8, y: 0, z: 9}
  - Position: {x: 11, y: 0, z: 9}
  - Position: {x: 12, y: 0, z: 9}
  - Position: {x: -14, y: 0, z: 10}
  - Position: {x: -9, y: 0, z: 10}
  - Position: {x: 6, y: 0, z: 10}
  - Position: {x: 7, y: 0, z: 10}
  - Position: {x: 8, y: 0, z: 10}
  - Position: {x: 9, y: 0, z: 10}
  - Position: {x: -9, y: 0, z: 11}
  - Position: {x: -8, y: 0, z: 11}
  - Position: {x: -7, y: 0, z: 11}
  - Position: {x: 4, y: 0, z: 11}
  - Position: {x: 5, y: 0, z: 11}
  - Position: {x: 6, y: 0, z: 11}
  - Position: {x: 9, y: 0, z: 11}
  - Position: {x: 10, y: 0, z: 11}
  - Position: {x: -6, y: 0, z: 12}
  - Position: {x: -5, y: 0, z: 12}
  - Position: {x: -4, y: 0, z: 12}
  - Position: {x: 0, y: 0, z: 12}
  - Position: {x: 1, y: 0, z: 12}
  - Position: {x: 2, y: 0, z: 12}
  - Position: {x: 3, y: 0, z: 12}
  - Position: {x: 4, y: 0, z: 12}
  - Position: {x: -4, y: 0, z: 13}
  - Position: {x: -3, y: 0, z: 13}
  - Position: {x: -2, y: 0, z: 13}
  - Position: {x: -1, y: 0, z: 13}
  - Position: {x: 1, y: 0, z: 13}
  - Position: {x: -4, y: 0, z: 14}
  - Position: {x: -3, y: 0, z: 14}
  - Position: {x: 2, y: 0, z: 14}
  - Position: {x: 3, y: 0, z: 14}
  - Position: {x: -3, y: 0, z: 15}
  - Position: {x: 3, y: 0, z: 15}
  - Position: {x: 4, y: 0, z: 15}
